…
    ## `summarise()` regrouping output by 'country' (override with `.groups` argument)

``` r
coronavirus_ttd %>%
  mutate(deathrate = death / confirmed) %>% 
  select(deathrate, everything())
```

    ## # A tibble: 188 x 5
    ## # Groups:   country [188]
    ##    deathrate country      confirmed  death recovered
    ##        <dbl> <chr>            <dbl>  <dbl>     <dbl>
    ##  1    0.0281 US             7500964 210886   2952390
    ##  2    0.0155 India          6757131 104555   5744693
    ##  3    0.0297 Brazil         4969141 147494   4430340
    ##  4    0.0175 Russia         1231277  21559    984767
    ##  5    0.0311 Colombia        869808  27017    770812
    ##  6    0.0396 Peru            829999  32834    712888
    ##  7    0.0394 Spain           825410  32486    150376
    ##  8    0.0265 Argentina       824468  21827    660272
    ##  9    0.104  Mexico          794608  82348    676923
    ## 10    0.0250 South Africa    683242  17103    616857
    ## # ... with 178 more rows
…
    ## # A tibble: 3 x 4
    ## # Groups:   country [3]
    ##   country confirmed  death recovered
    ##   <chr>       <dbl>  <dbl>     <dbl>
    ## 1 US        7500964 210886   2952390
    ## 2 Brazil    4969141 147494   4430340
    ## 3 India     6757131 104555   5744693

``` r
coronavirus_ttd %>%
  arrange(-death)
```

    ## # A tibble: 188 x 4
    ## # Groups:   country [188]
    ##    country        confirmed  death recovered
    ##    <chr>              <dbl>  <dbl>     <dbl>
    ##  1 US               7500964 210886   2952390
    ##  2 Brazil           4969141 147494   4430340
    ##  3 India            6757131 104555   5744693
    ##  4 Mexico            794608  82348    676923
    ##  5 United Kingdom    532779  42535      2417
    ##  6 Italy             330263  36030    234099
    ##  7 Peru              829999  32834    712888
    ##  8 Spain             825410  32486    150376
    ##  9 France            675736  32383    101443
    ## 10 Iran              479825  27419    394800
    ## # ... with 178 more rows
…
